…
close(f)
rm(all_lines)

Word frequencies

First, Ill look at the frequencies of words

orwell.1984 %>% 
      unnest_tokens(word, text) %>%
      count(word, sort = TRUE)

## # A tibble: 8,913 x 2
##     word     n
##    <chr> <int>
##  1   the  6439
##  2    of  3442
##  3     a  2534
##  4   and  2412
##  5    to  2322
##  6   was  2285
##  7    he  1947
##  8    in  1857
##  9    it  1834
## 10  that  1458
## # ... with 8,903 more rows
…
They become illicit lovers and plot against the party together, until they are both captured by the Thought Police and brainwashed to a point where they refuse to feel compassion.

Obrien and Winston have an interesting relationship throughout the novel. Obrien is a leader in the Inner Party, though Winston has always felt an attraction towards him. He sees Obrien as a father figure, and he often dreams of Obrien leading him to a place where there is no darkness. Obrien introduces Winston and Julia to The Brotherhood - a group of extremests rebeling against The Party. It turs out that Obrien only did this to incriminate Winston and that he has been watching him for years. After Winston is arrested for plotting against the party, Obrien tortures him until he has no more thoughts of his own and only lives to serve The Party.

These relationships are interesting because they change so sharply thorughout the novel. Lets see if we can detect this using tidytexts sentiment analysis tools.

Winston and Julia

In the begining of the novel, Winston does not know Julias name. He refers to her as the girl with dark hair or simply the girl.

orwell.1984 %>%
      filter(!is.na(str_match(text, "the girl"))) %>%
      select(text)

## # A tibble: 34 x 1
##                                                                           text
##                                                                          <chr>
##  1 But the other voice never stopped for an instant, even when the girl was sp
##  2 And the girl with dark hair, the girl from the Fiction Department  she wou
##  3                                             It was the girl with dark hair.
##  4 In and out of the dark doorways, and down narrow alley-ways that branched o
##  5      It was the girl from the Fiction Department , the girl with dark hair.
##  6           There was no doubting any longer that the girl was spying on him.
##  7 As he turned it occurred to him that the girl had only passed him three min
##  8                                             It was the girl with dark hair.
##  9 They were perhaps four metres apart when the girl stumbled and fell almost 
## 10 Nevertheless it had been very difficult not to betray a momentary surprise,
## # ... with 24 more rows
…
